^C:\THEMIDA\LAUNCHER\RELEASE\MAIN.OBJ
/OUT:"C:\THEMIDA\RELEASE\LAUNCHER.EXE" /INCREMENTAL:NO /NOLOGO D3D8.LIB D3DX8.LIB KERNEL32.LIB USER32.LIB GDI32.LIB WINSPOOL.LIB COMDLG32.LIB ADVAPI32.LIB SHELL32.LIB OLE32.LIB OLEAUT32.LIB UUID.LIB ODBC32.LIB ODBCCP32.LIB /MANIFEST /MANIFESTUAC:"level='asInvoker' uiAccess='false'" /manifest:embed /Debug /PDB:"C:\THEMIDA\RELEASE\LAUNCHER.PDB" /SUBSYSTEM:CONSOLE /OPT:REF /OPT:ICF /LTCG:incremental /TLBID:1 /DYNAMICBASE /NXCOMPAT /IMPLIB:"C:\THEMIDA\RELEASE\LAUNCHER.LIB" /MACHINE:X86 /SAFESEH RELEASE\MAIN.OBJ
^Y:\THEMIDA\LAUNCHER\RELEASE\MAIN.OBJ
/OUT:"Y:\THEMIDA\RELEASE\LAUNCHER.EXE" /INCREMENTAL:NO /NOLOGO D3D8.LIB D3DX8.LIB KERNEL32.LIB USER32.LIB GDI32.LIB WINSPOOL.LIB COMDLG32.LIB ADVAPI32.LIB SHELL32.LIB OLE32.LIB OLEAUT32.LIB UUID.LIB ODBC32.LIB ODBCCP32.LIB /MANIFEST /MANIFESTUAC:"level='asInvoker' uiAccess='false'" /manifest:embed /Debug /PDB:"Y:\THEMIDA\RELEASE\LAUNCHER.PDB" /SUBSYSTEM:CONSOLE /OPT:REF /OPT:ICF /LTCG:incremental /TLBID:1 /DYNAMICBASE /NXCOMPAT /IMPLIB:"Y:\THEMIDA\RELEASE\LAUNCHER.LIB" /MACHINE:X86 /SAFESEH RELEASE\MAIN.OBJ
