^Y:\THEMIDA\THEMIDA\MAIN.CPP
Y:\THEMIDA\THEMIDA\DEBUG\VC140.PDB
Y:\THEMIDA\THEMIDA\DEBUG\VC140.IDB
Y:\THEMIDA\THEMIDA\DEBUG\MAIN.OBJ
^Y:\THEMIDA\THEMIDA\MAIN.CPP|Y:\THEMIDA\THEMIDA\OEPFINDER.CPP
Y:\THEMIDA\THEMIDA\DEBUG\VC140.PDB
Y:\THEMIDA\THEMIDA\DEBUG\VC140.IDB
Y:\THEMIDA\THEMIDA\DEBUG\MAIN.OBJ
Y:\THEMIDA\THEMIDA\DEBUG\OEPFINDER.OBJ
^Y:\THEMIDA\THEMIDA\OEPFINDER.CPP
Y:\THEMIDA\THEMIDA\DEBUG\VC140.PDB
Y:\THEMIDA\THEMIDA\DEBUG\VC140.IDB
Y:\THEMIDA\THEMIDA\DEBUG\OEPFINDER.OBJ
^Y:\THEMIDA\THEMIDA\APIFIXER.CPP|Y:\THEMIDA\THEMIDA\MAIN.CPP|Y:\THEMIDA\THEMIDA\OEPFINDER.CPP
Y:\THEMIDA\THEMIDA\DEBUG\VC140.PDB
Y:\THEMIDA\THEMIDA\DEBUG\VC140.IDB
Y:\THEMIDA\THEMIDA\DEBUG\APIFIXER.OBJ
Y:\THEMIDA\THEMIDA\DEBUG\MAIN.OBJ
Y:\THEMIDA\THEMIDA\DEBUG\OEPFINDER.OBJ
^Y:\THEMIDA\THEMIDA\APIFIXER.CPP
Y:\THEMIDA\THEMIDA\DEBUG\VC140.PDB
^Y:\THEMIDA\THEMIDA\MAIN.CPP|Y:\THEMIDA\THEMIDA\UNPACKER.CPP
Y:\THEMIDA\THEMIDA\DEBUG\VC140.PDB
Y:\THEMIDA\THEMIDA\DEBUG\VC140.IDB
Y:\THEMIDA\THEMIDA\DEBUG\MAIN.OBJ
Y:\THEMIDA\THEMIDA\DEBUG\UNPACKER.OBJ
^Y:\THEMIDA\THEMIDA\UNPACKER.CPP
Y:\THEMIDA\THEMIDA\DEBUG\VC140.PDB
Y:\THEMIDA\THEMIDA\DEBUG\VC140.IDB
^Y:\THEMIDA\THEMIDA\OEPFINDER.CPP|Y:\THEMIDA\THEMIDA\PE.CPP|Y:\THEMIDA\THEMIDA\UNPACKER.CPP
Y:\THEMIDA\THEMIDA\DEBUG\VC140.PDB
Y:\THEMIDA\THEMIDA\DEBUG\VC140.IDB
Y:\THEMIDA\THEMIDA\DEBUG\OEPFINDER.OBJ
Y:\THEMIDA\THEMIDA\DEBUG\UNPACKER.OBJ
^Y:\THEMIDA\THEMIDA\PE.CPP
Y:\THEMIDA\THEMIDA\DEBUG\VC140.PDB
Y:\THEMIDA\THEMIDA\DEBUG\VC140.IDB
Y:\THEMIDA\THEMIDA\DEBUG\PE.OBJ
